id;name
1;conglomeration Table driver
2;Assimilated compress Cambridgeshire
3;XSS logistical Movies
4;online auxiliary
5;b GB
6;Enterprise-wide morph
7;calculate Chili
8;Sausages Table
9;navigate back Cheese
10;deposit Lepic emulation
